15 513.5026 4.41592 513.4019 4.41575 15
16 509.0306 4.52010 508.9299 4.51993 16
17 504.4502 4.62578 504.3494 4.62560 17
18 499.7600 4.73289 499.6592 4.73271 18
19 494.9585 4.84140 494.8576 4.84121 19
20 490.0444 4.95125 489.9435 4.95105 20
21 485.0165 5.06236 484.9154 5.06215 21
22 479.8735 5.17468 479.7723 5.17446 22
23 474.6145 5.28812 474.5131 5.28789 23
24 469.2382 5.40260 469.1366 5.40236 24
25 463.7440 5.51802 463.6421 5.51777 25
26 458.1309 5.63429 458.0288 5.63402 26
27 452.3984 5.75129 452.2959 5.75101 27
28 446.5460 5.86892 446.4431 5.86862 28
29 440.5733 5.98703 440.4699 5.98672 29
30 434.4801 6.10549 434.3762 6.10516 30
31 428.2664 6.22416 428.1619 6.22381 31
32 421.9325 6.34287 421.8272 6.34250 32
33 415.4785 6.46146 415.3724 6.46106 33
34 408.9053 6.57975 408.7983 6.57932 34
35 402.2135 6.69754 402.1055 6.69708 35
36 395.4044 6.81463 395.2952 6.81414 36
37 388.4792 6.93080 388.3687 6.93027 37
38 381.4395 7.04583 381.3276 7.04526 38
39 374.2873 7.15948 374.1738 7.15886 39
40 367.0249 7.27148 366.9096 7.27080 40
41 359.6548 7.38157 359.5376 7.38083 41
42 352.1799 7.48948 352.0605 7.48867 42
43 344.6036 7.59490 344.4818 7.59401 43
44 336.9295 7.69753 336.8050 7.69656 44
45 329.1617 7.79706 329.0343 7.79598 45
46 321.3047 7.89314 321.1742 7.89195 46
47 313.3635 7.98544 313.2295 7.98412 47
48 305.3434 8.07360 305.2056 8.07214 48
49 297.2504 8.15725 297.1085 8.15564 49
50 289.0908 8.23603 288.9443 8.23423 50
51 280.8713 8.30954 280.7200 8.30754 51
52 272.5994 8.37739 272.4428 8.37517 52
53 264.2828 8.43919 264.1205 8.43671 53
54 255.9301 8.49454 255.7615 8.49178 54
55 247.5499 8.54304 247.3747 8.53995 55
56 239.1517 8.58427 238.9694 8.58082 56
57 230.7453 8.61784 230.5554 8.61399 57
58 222.3412 8.64335 222.1432 8.63905 58
59 213.9502 8.66042 213.7434 8.65562 59
60 205.5836 8.66867 205.3676 8.66331 60
61 197.2531 8.66775 197.0273 8.66176 61
62 188.9708 8.65730 188.7346 8.65062 62
63 180.7493 8.63701 180.5022 8.62957 63
64 172.6012 8.60659 172.3426 8.59830 64
65 164.5396 8.56578 164.2691 8.55655 65
66 156.5777 8.51435 156.2947 8.50410 66
67 148.7289 8.45214 148.4328 8.44074 67
68 141.0064 8.37899 140.6969 8.36635 68
69 133.4236 8.29483 133.1002 8.28082 69
70 125.9936 8.19962 125.6560 8.18412 70
71 118.7293 8.09340 118.3772 8.07626 71
72 111.6433 7.97625 111.2765 7.95735 72
73 104.7477 7.84834 104.3660 7.82752 73
74 98.0540 7.70991 97.6574 7.68700 74
75 91.5731 7.56125 91.1617 7.53610 75
76 85.3151 7.40274 84.8889 7.37518 76
77 79.2890 7.23484 78.8484 7.20471 77
78 73.5030 7.05808 73.0484 7.02519 78
79 67.9641 6.87307 67.4960 6.83725 79
80 62.6782 6.68048 62.1972 6.64155 80
81 57.6497 6.48105 57.1566 6.43885 81
82 52.8818 6.27560 52.3776 6.22995 82
83 48.3763 6.06498 47.8620 6.01572 83
84 44.1335 5.85011 43.6103 5.79710 84
85 40.1524 5.63194 39.6215 5.57503 85
86 36.4303 5.41145 35.8933 5.35053 86
87 32.9633 5.18964 32.4217 5.12460 87
88 29.7462 4.96752 29.2015 4.89829 88
89 26.7724 4.74610 26.2263 4.67261 89
90 24.0342 4.52635 23.4884 4.44859 90
91 21.5227 4.30924 20.9790 4.22721 91
92 19.2282 4.09567 18.6885 4.00943 92
93 17.1403 3.88651 16.6062 3.79613 93
94 15.2477 3.68256 14.7210 3.58817 94
95 13.5388 3.48452 13.0213 3.38632 95
96 12.0017 3.29306 11.4951 3.19126 96
97 10.6244 3.10871 10.1302 3.00360 97
98 9.3946 2.93195 8.9144 2.82386 98
99 8.3005 2.76315 7.8357 2.65248 99
100 7.3304 2.60258 6.8823 2.48980 100
101 6.4729 2.45043 6.0428 2.33605 101
102 5.7174 2.30680 5.3063 2.19141 102
103 5.0535 2.17171 4.6624 2.05596 103
104 4.4717 2.04511 4.1015 1.92971 104
105 3.9631 1.92688 3.6144 1.81259 105
106 3.5194 1.81685 3.1930 1.70448 106
107 3.1333 1.71480 2.8294 1.60521 107
108 2.7978 1.62047 2.5169 1.51454 108
109 2.5070 1.53355 2.2491 1.43217 109
110 2.2555 1.45359 2.0207 1.35766 110
111 2.0384 1.37968 1.8265 1.29026 111
112 1.8516 1.30929 1.6623 1.22794 112
113 1.6914 1.23295 1.5241 1.16391 113
114 1.5538 1.11010 1.4083 1.07050 114
115 1.4325 1.09619 1.3093 0.82787 115